%YAML 1.1
%TAG !u! tag:unity3d.com,2011:
--- !u!1045 &1
EditorBuildSettings:
  m_ObjectHideFlags: 0
  serializedVersion: 2
  m_Scenes:
  - enabled: 1
    path: Assets/Scenes/Menu.unity
    guid: d86a91c8ea962214fb085858699f6165
  - enabled: 1
    path: Assets/Scenes/Main.unity
    guid: 483b81c5ec75acd42888628315f7d98f
